{
	"evaluate": ["style_main_title = 'font-size:300%; background: grey; color:rgba(54,11,63,1); text-align: center; font-weight: 900;'",
	"style_regular = 'text-align: center; background: grey; color:rgba(54,11,63,1); font-weight: bold;'",
	"style_internal_orange = 'text-align: center; background: orange; color:rgba(54,11,63,1); '",
	"style_internal_red = 'text-align: center; background: red; color:rgba(54,11,63,1);'",
	"style_internal_yellow = 'text-align: center; background: yellow; color:rgba(54,11,63,1);'",
	"style_internal_white = 'text-align: center; background: white; color:rgba(54,11,63,1); '",
	"style_side_blue = 'text-align: center; background: #0099FF; color:rgba(54,11,63,1);'",
	"style_side_orange = 'text-align: center; background: orange; color:rgba(54,11,63,1);'",
	"style_side_gery = 'text-align: center; background: grey; color:rgba(54,11,63,1);'",
	"cell_background_selection = {'A3': 'red', 'A6': 'yellow', 'N': 'orange','L': 'white'}"],
	"table_data": [[{
		"text": "",
		"style": "style_regular"
	},
	{
		"text": "",
		"style": "style_regular"
	},
	{
		"text": "",
		"style": "style_regular"
	},
	{
		"text": "",
		"style": "style_regular"
	},
	{
		"text": "",
		"style": "style_regular"
	},
	{
		"text": "NBFF",
		"style": "style_main_title"
	},
	{
		"text": "",
		"style": "style_regular"
	},
	{
		"text": "",
		"style": "style_regular"
	},
	{
		"text": "",
		"style": "style_regular"
	}],
	[{
		"text": "",
		"style": "style_regular"
	},
	{
		"text": "",
		"style": "style_regular"
	},
	{
		"text": "",
		"style": "style_regular"
	},
	{
		"text": "",
		"style": "style_regular"
	},
	{
		"text": "",
		"style": "style_regular"
	},
	{
		"text": "",
		"style": "style_regular"
	},
	{
		"text": "",
		"style": "style_regular"
	},
	{
		"text": "",
		"style": "style_regular"
	},
	{
		"text": "",
		"style": "style_regular"
	}],
	[{
		"text": "",
		"style": "style_regular"
	},
	{
		"text": "",
		"style": "style_regular"
	},
	{
		"text": "SUNDAY",
		"style": "style_regular"
	},
	{
		"text": "MONDAY",
		"style": "style_regular"
	},
	{
		"text": "TUESDAY",
		"style": "style_regular"
	},
	{
		"text": "WEDNESDAY",
		"style": "style_regular"
	},
	{
		"text": "THURSDAY",
		"style": "style_regular"
	},
	{
		"text": "FRIDAY",
		"style": "style_regular"
	},
	{
		"text": "SATURDAY",
		"style": "style_regular"
	}],
	[{
		"text": "LATE PRIME",
		"style": "style_side_blue"
	},
	{
		"text": "Brk1",
		"style": "style_internal_white"
	},
	{
		"text": "1500",
		"style": "style_internal_orange",
		"background_selections": "cell_background_selection"
	},
	{
		"text": "1500",
		"style": "style_internal_orange",
		"background_selections": "cell_background_selection"
	},
	{
		"text": "1500",
		"style": "style_internal_orange",
		"background_selections": "cell_background_selection"
	},
	{
		"text": "1500",
		"style": "style_internal_orange",
		"background_selections": "cell_background_selection"
	},
	{
		"text": "1500",
		"style": "style_internal_orange",
		"background_selections": "cell_background_selection"
	},
	{
		"text": "1500",
		"style": "style_internal_orange",
		"background_selections": "cell_background_selection"
	},
	{
		"text": "1500",
		"style": "style_internal_orange",
		"background_selections": "cell_background_selection"
	}],
	[{
		"text": "",
		"style": "style_side_blue"
	},
	{
		"text": "Brk2",
		"style": "style_internal_white"
	},
	{
		"text": "4500",
		"style": "style_internal_white",
		"background_selections": "cell_background_selection"
	},
	{
		"text": "4500",
		"style": "style_internal_white",
		"background_selections": "cell_background_selection"
	},
	{
		"text": "4500",
		"style": "style_internal_white",
		"background_selections": "cell_background_selection"
	},
	{
		"text": "4500",
		"style": "style_internal_white",
		"background_selections": "cell_background_selection"
	},
	{
		"text": "4500",
		"style": "style_internal_white",
		"background_selections": "cell_background_selection"
	},
	{
		"text": "4500",
		"style": "style_internal_white",
		"background_selections": "cell_background_selection"
	},
	{
		"text": "4500",
		"style": "style_internal_white",
		"background_selections": "cell_background_selection"
	}],
	[{
		"text": "",
		"style": "style_side_blue"
	},
	{
		"text": "Brk1",
		"style": "style_internal_white"
	},
	{
		"text": "11500",
		"style": "style_internal_orange",
		"background_selections": "cell_background_selection"
	},
	{
		"text": "11500",
		"style": "style_internal_orange",
		"background_selections": "cell_background_selection"
	},
	{
		"text": "11500",
		"style": "style_internal_orange",
		"background_selections": "cell_background_selection"
	},
	{
		"text": "11500",
		"style": "style_internal_orange",
		"background_selections": "cell_background_selection"
	},
	{
		"text": "11500",
		"style": "style_internal_orange",
		"background_selections": "cell_background_selection"
	},
	{
		"text": "11500",
		"style": "style_internal_orange",
		"background_selections": "cell_background_selection"
	},
	{
		"text": "11500",
		"style": "style_internal_orange",
		"background_selections": "cell_background_selection"
	}],
	[{
		"text": "",
		"style": "style_side_blue"
	},
	{
		"text": "Brk2",
		"style": "style_internal_white"
	},
	{
		"text": "13500",
		"style": "style_internal_white",
		"background_selections": "cell_background_selection"
	},
	{
		"text": "13500",
		"style": "style_internal_white",
		"background_selections": "cell_background_selection"
	},
	{
		"text": "13500",
		"style": "style_internal_white",
		"background_selections": "cell_background_selection"
	},
	{
		"text": "13500",
		"style": "style_internal_white",
		"background_selections": "cell_background_selection"
	},
	{
		"text": "13500",
		"style": "style_internal_white",
		"background_selections": "cell_background_selection"
	},
	{
		"text": "13500",
		"style": "style_internal_white",
		"background_selections": "cell_background_selection"
	},
	{
		"text": "13500",
		"style": "style_internal_white",
		"background_selections": "cell_background_selection"
	}],
	[{
		"text": "",
		"style": "style_side_blue"
	},
	{
		"text": "Brk3",
		"style": "style_internal_white"
	},
	{
		"text": "14500",
		"style": "style_internal_white",
		"background_selections": "cell_background_selection"
	},
	{
		"text": "14500",
		"style": "style_internal_white",
		"background_selections": "cell_background_selection"
	},
	{
		"text": "14500",
		"style": "style_internal_white",
		"background_selections": "cell_background_selection"
	},
	{
		"text": "14500",
		"style": "style_internal_white",
		"background_selections": "cell_background_selection"
	},
	{
		"text": "14500",
		"style": "style_internal_white",
		"background_selections": "cell_background_selection"
	},
	{
		"text": "14500",
		"style": "style_internal_white",
		"background_selections": "cell_background_selection"
	},
	{
		"text": "14500",
		"style": "style_internal_white",
		"background_selections": "cell_background_selection"
	}],
	[{
		"text": "OVER NIGHT",
		"style": "style_side_orange"
	},
	{
		"text": "Brk1",
		"style": "style_internal_white"
	},
	{
		"text": "21500",
		"style": "style_internal_orange",
		"background_selections": "cell_background_selection"
	},
	{
		"text": "21500",
		"style": "style_internal_orange",
		"background_selections": "cell_background_selection"
	},
	{
		"text": "21500",
		"style": "style_internal_orange",
		"background_selections": "cell_background_selection"
	},
	{
		"text": "21500",
		"style": "style_internal_orange",
		"background_selections": "cell_background_selection"
	},
	{
		"text": "21500",
		"style": "style_internal_orange",
		"background_selections": "cell_background_selection"
	},
	{
		"text": "21500",
		"style": "style_internal_orange",
		"background_selections": "cell_background_selection"
	},
	{
		"text": "21500",
		"style": "style_internal_orange",
		"background_selections": "cell_background_selection"
	}],
	[{
		"text": "",
		"style": "style_side_orange"
	},
	{
		"text": "Brk2",
		"style": "style_internal_white"
	},
	{
		"text": "24500",
		"style": "style_internal_red",
		"background_selections": "cell_background_selection"
	},
	{
		"text": "24500",
		"style": "style_internal_red",
		"background_selections": "cell_background_selection"
	},
	{
		"text": "24500",
		"style": "style_internal_red",
		"background_selections": "cell_background_selection"
	},
	{
		"text": "24500",
		"style": "style_internal_red",
		"background_selections": "cell_background_selection"
	},
	{
		"text": "24500",
		"style": "style_internal_red",
		"background_selections": "cell_background_selection"
	},
	{
		"text": "24500",
		"style": "style_internal_red",
		"background_selections": "cell_background_selection"
	},
	{
		"text": "24500",
		"style": "style_internal_red",
		"background_selections": "cell_background_selection"
	}],
	[{
		"text": "",
		"style": "style_side_orange"
	},
	{
		"text": "Brk3",
		"style": "style_internal_white"
	},
	{
		"text": "24530",
		"style": "style_internal_white",
		"background_selections": "cell_background_selection"
	},
	{
		"text": "24530",
		"style": "style_internal_white",
		"background_selections": "cell_background_selection"
	},
	{
		"text": "24530",
		"style": "style_internal_white",
		"background_selections": "cell_background_selection"
	},
	{
		"text": "24530",
		"style": "style_internal_white",
		"background_selections": "cell_background_selection"
	},
	{
		"text": "24530",
		"style": "style_internal_white",
		"background_selections": "cell_background_selection"
	},
	{
		"text": "24530",
		"style": "style_internal_white",
		"background_selections": "cell_background_selection"
	},
	{
		"text": "24530",
		"style": "style_internal_white",
		"background_selections": "cell_background_selection"
	}],
	[{
		"text": "",
		"style": "style_side_orange"
	},
	{
		"text": "Brk1",
		"style": "style_internal_white"
	},
	{
		"text": "31500",
		"style": "style_internal_orange",
		"background_selections": "cell_background_selection"
	},
	{
		"text": "31500",
		"style": "style_internal_orange",
		"background_selections": "cell_background_selection"
	},
	{
		"text": "31500",
		"style": "style_internal_orange",
		"background_selections": "cell_background_selection"
	},
	{
		"text": "31500",
		"style": "style_internal_orange",
		"background_selections": "cell_background_selection"
	},
	{
		"text": "31500",
		"style": "style_internal_orange",
		"background_selections": "cell_background_selection"
	},
	{
		"text": "31500",
		"style": "style_internal_orange",
		"background_selections": "cell_background_selection"
	},
	{
		"text": "31500",
		"style": "style_internal_orange",
		"background_selections": "cell_background_selection"
	}],
	[{
		"text": "",
		"style": "style_side_orange"
	},
	{
		"text": "Brk2",
		"style": "style_internal_white"
	},
	{
		"text": "33500",
		"style": "style_internal_white",
		"background_selections": "cell_background_selection"
	},
	{
		"text": "33500",
		"style": "style_internal_white",
		"background_selections": "cell_background_selection"
	},
	{
		"text": "33500",
		"style": "style_internal_white",
		"background_selections": "cell_background_selection"
	},
	{
		"text": "33500",
		"style": "style_internal_white",
		"background_selections": "cell_background_selection"
	},
	{
		"text": "33500",
		"style": "style_internal_white",
		"background_selections": "cell_background_selection"
	},
	{
		"text": "33500",
		"style": "style_internal_white",
		"background_selections": "cell_background_selection"
	},
	{
		"text": "33500",
		"style": "style_internal_white",
		"background_selections": "cell_background_selection"
	}],
	[{
		"text": "",
		"style": "style_side_orange"
	},
	{
		"text": "Brk3",
		"style": "style_internal_white"
	},
	{
		"text": "34500",
		"style": "style_internal_red",
		"background_selections": "cell_background_selection"
	},
	{
		"text": "34500",
		"style": "style_internal_red",
		"background_selections": "cell_background_selection"
	},
	{
		"text": "34500",
		"style": "style_internal_red",
		"background_selections": "cell_background_selection"
	},
	{
		"text": "34500",
		"style": "style_internal_red",
		"background_selections": "cell_background_selection"
	},
	{
		"text": "34500",
		"style": "style_internal_red",
		"background_selections": "cell_background_selection"
	},
	{
		"text": "34500",
		"style": "style_internal_red",
		"background_selections": "cell_background_selection"
	},
	{
		"text": "34500",
		"style": "style_internal_red",
		"background_selections": "cell_background_selection"
	}],
	[{
		"text": "",
		"style": "style_side_orange"
	},
	{
		"text": "Brk3",
		"style": "style_internal_white"
	},
	{
		"text": "34530",
		"style": "style_internal_white",
		"background_selections": "cell_background_selection"
	},
	{
		"text": "34530",
		"style": "style_internal_white",
		"background_selections": "cell_background_selection"
	},
	{
		"text": "34530",
		"style": "style_internal_white",
		"background_selections": "cell_background_selection"
	},
	{
		"text": "34530",
		"style": "style_internal_white",
		"background_selections": "cell_background_selection"
	},
	{
		"text": "34530",
		"style": "style_internal_white",
		"background_selections": "cell_background_selection"
	},
	{
		"text": "34530",
		"style": "style_internal_white",
		"background_selections": "cell_background_selection"
	},
	{
		"text": "34530",
		"style": "style_internal_white",
		"background_selections": "cell_background_selection"
	}],
	[{
		"text": "",
		"style": "style_side_orange"
	},
	{
		"text": "Brk1",
		"style": "style_internal_white"
	},
	{
		"text": "41500",
		"style": "style_internal_white",
		"background_selections": "cell_background_selection"
	},
	{
		"text": "41500",
		"style": "style_internal_white",
		"background_selections": "cell_background_selection"
	},
	{
		"text": "41500",
		"style": "style_internal_white",
		"background_selections": "cell_background_selection"
	},
	{
		"text": "41500",
		"style": "style_internal_white",
		"background_selections": "cell_background_selection"
	},
	{
		"text": "41500",
		"style": "style_internal_white",
		"background_selections": "cell_background_selection"
	},
	{
		"text": "41500",
		"style": "style_internal_white",
		"background_selections": "cell_background_selection"
	},
	{
		"text": "41500",
		"style": "style_internal_white",
		"background_selections": "cell_background_selection"
	}],
	[{
		"text": "",
		"style": "style_side_orange"
	},
	{
		"text": "Brk2",
		"style": "style_internal_white"
	},
	{
		"text": "43500",
		"style": "style_internal_white",
		"background_selections": "cell_background_selection"
	},
	{
		"text": "43500",
		"style": "style_internal_white",
		"background_selections": "cell_background_selection"
	},
	{
		"text": "43500",
		"style": "style_internal_white",
		"background_selections": "cell_background_selection"
	},
	{
		"text": "43500",
		"style": "style_internal_white",
		"background_selections": "cell_background_selection"
	},
	{
		"text": "43500",
		"style": "style_internal_white",
		"background_selections": "cell_background_selection"
	},
	{
		"text": "43500",
		"style": "style_internal_white",
		"background_selections": "cell_background_selection"
	},
	{
		"text": "43500",
		"style": "style_internal_white",
		"background_selections": "cell_background_selection"
	}],
	[{
		"text": "",
		"style": "style_side_orange"
	},
	{
		"text": "Brk3",
		"style": "style_internal_white"
	},
	{
		"text": "44500",
		"style": "style_internal_white",
		"background_selections": "cell_background_selection"
	},
	{
		"text": "44500",
		"style": "style_internal_white",
		"background_selections": "cell_background_selection"
	},
	{
		"text": "44500",
		"style": "style_internal_white",
		"background_selections": "cell_background_selection"
	},
	{
		"text": "44500",
		"style": "style_internal_white",
		"background_selections": "cell_background_selection"
	},
	{
		"text": "44500",
		"style": "style_internal_white",
		"background_selections": "cell_background_selection"
	},
	{
		"text": "44500",
		"style": "style_internal_white",
		"background_selections": "cell_background_selection"
	},
	{
		"text": "44500",
		"style": "style_internal_white",
		"background_selections": "cell_background_selection"
	}],
	[{
		"text": "",
		"style": "style_side_orange"
	},
	{
		"text": "Brk1",
		"style": "style_internal_white"
	},
	{
		"text": "51500",
		"style": "style_internal_white",
		"background_selections": "cell_background_selection"
	},
	{
		"text": "51500",
		"style": "style_internal_white",
		"background_selections": "cell_background_selection"
	},
	{
		"text": "51500",
		"style": "style_internal_white",
		"background_selections": "cell_background_selection"
	},
	{
		"text": "51500",
		"style": "style_internal_white",
		"background_selections": "cell_background_selection"
	},
	{
		"text": "51500",
		"style": "style_internal_white",
		"background_selections": "cell_background_selection"
	},
	{
		"text": "51500",
		"style": "style_internal_white",
		"background_selections": "cell_background_selection"
	},
	{
		"text": "51500",
		"style": "style_internal_white",
		"background_selections": "cell_background_selection"
	}],
	[{
		"text": "",
		"style": "style_side_orange"
	},
	{
		"text": "Brk2",
		"style": "style_internal_white"
	},
	{
		"text": "54500",
		"style": "style_internal_white",
		"background_selections": "cell_background_selection"
	},
	{
		"text": "54500",
		"style": "style_internal_white",
		"background_selections": "cell_background_selection"
	},
	{
		"text": "54500",
		"style": "style_internal_white",
		"background_selections": "cell_background_selection"
	},
	{
		"text": "54500",
		"style": "style_internal_white",
		"background_selections": "cell_background_selection"
	},
	{
		"text": "54500",
		"style": "style_internal_white",
		"background_selections": "cell_background_selection"
	},
	{
		"text": "54500",
		"style": "style_internal_white",
		"background_selections": "cell_background_selection"
	},
	{
		"text": "54500",
		"style": "style_internal_white",
		"background_selections": "cell_background_selection"
	}],
	[{
		"text": "",
		"style": "style_regular"
	},
	{
		"text": "",
		"style": "style_regular"
	},
	{
		"text": "MON",
		"style": "style_regular"
	},
	{
		"text": "TUE",
		"style": "style_regular"
	},
	{
		"text": "WED",
		"style": "style_regular"
	},
	{
		"text": "THUR",
		"style": "style_regular"
	},
	{
		"text": "FRI",
		"style": "style_regular"
	},
	{
		"text": "SAT",
		"style": "style_regular"
	},
	{
		"text": "SUN",
		"style": "style_regular"
	}],
	[{
		"text": "EARLY MORNING",
		"style": "style_side_gery"
	},
	{
		"text": "Brk1",
		"style": "style_internal_white"
	},
	{
		"text": "61500",
		"style": "style_internal_white",
		"background_selections": "cell_background_selection"
	},
	{
		"text": "61500",
		"style": "style_internal_white",
		"background_selections": "cell_background_selection"
	},
	{
		"text": "61500",
		"style": "style_internal_white",
		"background_selections": "cell_background_selection"
	},
	{
		"text": "61500",
		"style": "style_internal_white",
		"background_selections": "cell_background_selection"
	},
	{
		"text": "61500",
		"style": "style_internal_white",
		"background_selections": "cell_background_selection"
	},
	{
		"text": "61500",
		"style": "style_internal_white",
		"background_selections": "cell_background_selection"
	},
	{
		"text": "61500",
		"style": "style_internal_white",
		"background_selections": "cell_background_selection"
	}],
	[{
		"text": "",
		"style": "style_side_gery"
	},
	{
		"text": "Brk2",
		"style": "style_internal_white"
	},
	{
		"text": "63500",
		"style": "style_internal_white",
		"background_selections": "cell_background_selection"
	},
	{
		"text": "63500",
		"style": "style_internal_white",
		"background_selections": "cell_background_selection"
	},
	{
		"text": "63500",
		"style": "style_internal_white",
		"background_selections": "cell_background_selection"
	},
	{
		"text": "63500",
		"style": "style_internal_white",
		"background_selections": "cell_background_selection"
	},
	{
		"text": "63500",
		"style": "style_internal_white",
		"background_selections": "cell_background_selection"
	},
	{
		"text": "63500",
		"style": "style_internal_white",
		"background_selections": "cell_background_selection"
	},
	{
		"text": "63500",
		"style": "style_internal_white",
		"background_selections": "cell_background_selection"
	}],
	[{
		"text": "",
		"style": "style_side_gery"
	},
	{
		"text": "Brk3",
		"style": "style_internal_white"
	},
	{
		"text": "64500",
		"style": "style_internal_white",
		"background_selections": "cell_background_selection"
	},
	{
		"text": "64500",
		"style": "style_internal_white",
		"background_selections": "cell_background_selection"
	},
	{
		"text": "64500",
		"style": "style_internal_white",
		"background_selections": "cell_background_selection"
	},
	{
		"text": "64500",
		"style": "style_internal_white",
		"background_selections": "cell_background_selection"
	},
	{
		"text": "64500",
		"style": "style_internal_white",
		"background_selections": "cell_background_selection"
	},
	{
		"text": "64500",
		"style": "style_internal_white",
		"background_selections": "cell_background_selection"
	},
	{
		"text": "64500",
		"style": "style_internal_white",
		"background_selections": "cell_background_selection"
	}],
	[{
		"text": "",
		"style": "style_side_gery"
	},
	{
		"text": "Brk1",
		"style": "style_internal_white"
	},
	{
		"text": "71500",
		"style": "style_internal_white",
		"background_selections": "cell_background_selection"
	},
	{
		"text": "71500",
		"style": "style_internal_white",
		"background_selections": "cell_background_selection"
	},
	{
		"text": "71500",
		"style": "style_internal_white",
		"background_selections": "cell_background_selection"
	},
	{
		"text": "71500",
		"style": "style_internal_white",
		"background_selections": "cell_background_selection"
	},
	{
		"text": "71500",
		"style": "style_internal_white",
		"background_selections": "cell_background_selection"
	},
	{
		"text": "71500",
		"style": "style_internal_white",
		"background_selections": "cell_background_selection"
	},
	{
		"text": "71500",
		"style": "style_internal_white",
		"background_selections": "cell_background_selection"
	}],
	[{
		"text": "",
		"style": "style_side_gery"
	},
	{
		"text": "Brk2",
		"style": "style_internal_white"
	},
	{
		"text": "73500",
		"style": "style_internal_white",
		"background_selections": "cell_background_selection"
	},
	{
		"text": "73500",
		"style": "style_internal_white",
		"background_selections": "cell_background_selection"
	},
	{
		"text": "73500",
		"style": "style_internal_white",
		"background_selections": "cell_background_selection"
	},
	{
		"text": "73500",
		"style": "style_internal_white",
		"background_selections": "cell_background_selection"
	},
	{
		"text": "73500",
		"style": "style_internal_white",
		"background_selections": "cell_background_selection"
	},
	{
		"text": "73500",
		"style": "style_internal_white",
		"background_selections": "cell_background_selection"
	},
	{
		"text": "73500",
		"style": "style_internal_white",
		"background_selections": "cell_background_selection"
	}],
	[{
		"text": "",
		"style": "style_side_gery"
	},
	{
		"text": "Brk3",
		"style": "style_internal_white"
	},
	{
		"text": "74500",
		"style": "style_internal_white",
		"background_selections": "cell_background_selection"
	},
	{
		"text": "74500",
		"style": "style_internal_white",
		"background_selections": "cell_background_selection"
	},
	{
		"text": "74500",
		"style": "style_internal_white",
		"background_selections": "cell_background_selection"
	},
	{
		"text": "74500",
		"style": "style_internal_white",
		"background_selections": "cell_background_selection"
	},
	{
		"text": "74500",
		"style": "style_internal_white",
		"background_selections": "cell_background_selection"
	},
	{
		"text": "74500",
		"style": "style_internal_white",
		"background_selections": "cell_background_selection"
	},
	{
		"text": "74500",
		"style": "style_internal_white",
		"background_selections": "cell_background_selection"
	}],
	[{
		"text": "",
		"style": "style_side_gery"
	},
	{
		"text": "Brk1",
		"style": "style_internal_white"
	},
	{
		"text": "81500",
		"style": "style_internal_white",
		"background_selections": "cell_background_selection"
	},
	{
		"text": "81500",
		"style": "style_internal_white",
		"background_selections": "cell_background_selection"
	},
	{
		"text": "81500",
		"style": "style_internal_white",
		"background_selections": "cell_background_selection"
	},
	{
		"text": "81500",
		"style": "style_internal_white",
		"background_selections": "cell_background_selection"
	},
	{
		"text": "81500",
		"style": "style_internal_white",
		"background_selections": "cell_background_selection"
	},
	{
		"text": "81500",
		"style": "style_internal_white",
		"background_selections": "cell_background_selection"
	},
	{
		"text": "81500",
		"style": "style_internal_white",
		"background_selections": "cell_background_selection"
	}],
	[{
		"text": "",
		"style": "style_side_gery"
	},
	{
		"text": "Brk2",
		"style": "style_internal_white"
	},
	{
		"text": "83500",
		"style": "style_internal_white",
		"background_selections": "cell_background_selection"
	},
	{
		"text": "83500",
		"style": "style_internal_white",
		"background_selections": "cell_background_selection"
	},
	{
		"text": "83500",
		"style": "style_internal_white",
		"background_selections": "cell_background_selection"
	},
	{
		"text": "83500",
		"style": "style_internal_white",
		"background_selections": "cell_background_selection"
	},
	{
		"text": "83500",
		"style": "style_internal_white",
		"background_selections": "cell_background_selection"
	},
	{
		"text": "83500",
		"style": "style_internal_white",
		"background_selections": "cell_background_selection"
	},
	{
		"text": "83500",
		"style": "style_internal_white",
		"background_selections": "cell_background_selection"
	}],
	[{
		"text": "",
		"style": "style_side_gery"
	},
	{
		"text": "Brk3",
		"style": "style_internal_white"
	},
	{
		"text": "84500",
		"style": "style_internal_white",
		"background_selections": "cell_background_selection"
	},
	{
		"text": "84500",
		"style": "style_internal_white",
		"background_selections": "cell_background_selection"
	},
	{
		"text": "84500",
		"style": "style_internal_white",
		"background_selections": "cell_background_selection"
	},
	{
		"text": "84500",
		"style": "style_internal_white",
		"background_selections": "cell_background_selection"
	},
	{
		"text": "84500",
		"style": "style_internal_white",
		"background_selections": "cell_background_selection"
	},
	{
		"text": "84500",
		"style": "style_internal_white",
		"background_selections": "cell_background_selection"
	},
	{
		"text": "84500",
		"style": "style_internal_white",
		"background_selections": "cell_background_selection"
	}],
	[{
		"text": "Day Time",
		"style": "style_side_blue"
	},
	{
		"text": "Brk1",
		"style": "style_internal_white"
	},
	{
		"text": "91500",
		"style": "style_internal_white",
		"background_selections": "cell_background_selection"
	},
	{
		"text": "91500",
		"style": "style_internal_white",
		"background_selections": "cell_background_selection"
	},
	{
		"text": "91500",
		"style": "style_internal_white",
		"background_selections": "cell_background_selection"
	},
	{
		"text": "91500",
		"style": "style_internal_white",
		"background_selections": "cell_background_selection"
	},
	{
		"text": "91500",
		"style": "style_internal_white",
		"background_selections": "cell_background_selection"
	},
	{
		"text": "91500",
		"style": "style_internal_white",
		"background_selections": "cell_background_selection"
	},
	{
		"text": "91500",
		"style": "style_internal_white",
		"background_selections": "cell_background_selection"
	}],
	[{
		"text": "",
		"style": "style_side_blue"
	},
	{
		"text": "Brk2",
		"style": "style_internal_white"
	},
	{
		"text": "93500",
		"style": "style_internal_white",
		"background_selections": "cell_background_selection"
	},
	{
		"text": "93500",
		"style": "style_internal_white",
		"background_selections": "cell_background_selection"
	},
	{
		"text": "93500",
		"style": "style_internal_white",
		"background_selections": "cell_background_selection"
	},
	{
		"text": "93500",
		"style": "style_internal_white",
		"background_selections": "cell_background_selection"
	},
	{
		"text": "93500",
		"style": "style_internal_white",
		"background_selections": "cell_background_selection"
	},
	{
		"text": "93500",
		"style": "style_internal_white",
		"background_selections": "cell_background_selection"
	},
	{
		"text": "93500",
		"style": "style_internal_white",
		"background_selections": "cell_background_selection"
	}],
	[{
		"text": "",
		"style": "style_side_blue"
	},
	{
		"text": "Brk1",
		"style": "style_internal_white"
	},
	{
		"text": "94500",
		"style": "style_internal_white",
		"background_selections": "cell_background_selection"
	},
	{
		"text": "94500",
		"style": "style_internal_white",
		"background_selections": "cell_background_selection"
	},
	{
		"text": "94500",
		"style": "style_internal_white",
		"background_selections": "cell_background_selection"
	},
	{
		"text": "94500",
		"style": "style_internal_white",
		"background_selections": "cell_background_selection"
	},
	{
		"text": "94500",
		"style": "style_internal_white",
		"background_selections": "cell_background_selection"
	},
	{
		"text": "94500",
		"style": "style_internal_white",
		"background_selections": "cell_background_selection"
	},
	{
		"text": "94500",
		"style": "style_internal_white",
		"background_selections": "cell_background_selection"
	}],
	[{
		"text": "",
		"style": "style_side_blue"
	},
	{
		"text": "Brk1",
		"style": "style_internal_white"
	},
	{
		"text": "101500",
		"style": "style_internal_orange",
		"background_selections": "cell_background_selection"
	},
	{
		"text": "101500",
		"style": "style_internal_orange",
		"background_selections": "cell_background_selection"
	},
	{
		"text": "101500",
		"style": "style_internal_orange",
		"background_selections": "cell_background_selection"
	},
	{
		"text": "101500",
		"style": "style_internal_orange",
		"background_selections": "cell_background_selection"
	},
	{
		"text": "101500",
		"style": "style_internal_orange",
		"background_selections": "cell_background_selection"
	},
	{
		"text": "101500",
		"style": "style_internal_orange",
		"background_selections": "cell_background_selection"
	},
	{
		"text": "101500",
		"style": "style_internal_orange",
		"background_selections": "cell_background_selection"
	}],
	[{
		"text": "",
		"style": "style_side_blue"
	},
	{
		"text": "Brk2",
		"style": "style_internal_white"
	},
	{
		"text": "103500",
		"style": "style_internal_white",
		"background_selections": "cell_background_selection"
	},
	{
		"text": "103500",
		"style": "style_internal_white",
		"background_selections": "cell_background_selection"
	},
	{
		"text": "103500",
		"style": "style_internal_white",
		"background_selections": "cell_background_selection"
	},
	{
		"text": "103500",
		"style": "style_internal_white",
		"background_selections": "cell_background_selection"
	},
	{
		"text": "103500",
		"style": "style_internal_white",
		"background_selections": "cell_background_selection"
	},
	{
		"text": "103500",
		"style": "style_internal_white",
		"background_selections": "cell_background_selection"
	},
	{
		"text": "103500",
		"style": "style_internal_white",
		"background_selections": "cell_background_selection"
	}],
	[{
		"text": "",
		"style": "style_side_blue"
	},
	{
		"text": "Brk3",
		"style": "style_internal_white"
	},
	{
		"text": "104500",
		"style": "style_internal_red",
		"background_selections": "cell_background_selection"
	},
	{
		"text": "104500",
		"style": "style_internal_white",
		"background_selections": "cell_background_selection"
	},
	{
		"text": "104500",
		"style": "style_internal_white",
		"background_selections": "cell_background_selection"
	},
	{
		"text": "104500",
		"style": "style_internal_white",
		"background_selections": "cell_background_selection"
	},
	{
		"text": "104500",
		"style": "style_internal_white",
		"background_selections": "cell_background_selection"
	},
	{
		"text": "104500",
		"style": "style_internal_white",
		"background_selections": "cell_background_selection"
	},
	{
		"text": "104500",
		"style": "style_internal_red",
		"background_selections": "cell_background_selection"
	}],
	[{
		"text": "",
		"style": "style_side_blue"
	},
	{
		"text": "Brk3",
		"style": "style_internal_white"
	},
	{
		"text": "104530",
		"style": "style_internal_white",
		"background_selections": "cell_background_selection"
	},
	{
		"text": "104530",
		"style": "style_internal_red",
		"background_selections": "cell_background_selection"
	},
	{
		"text": "104530",
		"style": "style_internal_red",
		"background_selections": "cell_background_selection"
	},
	{
		"text": "104530",
		"style": "style_internal_red",
		"background_selections": "cell_background_selection"
	},
	{
		"text": "104530",
		"style": "style_internal_red",
		"background_selections": "cell_background_selection"
	},
	{
		"text": "104530",
		"style": "style_internal_red",
		"background_selections": "cell_background_selection"
	},
	{
		"text": "104530",
		"style": "style_internal_white",
		"background_selections": "cell_background_selection"
	}],
	[{
		"text": "",
		"style": "style_side_blue"
	},
	{
		"text": "Brk1",
		"style": "style_internal_white"
	},
	{
		"text": "111500",
		"style": "style_internal_white",
		"background_selections": "cell_background_selection"
	},
	{
		"text": "111500",
		"style": "style_internal_white",
		"background_selections": "cell_background_selection"
	},
	{
		"text": "111500",
		"style": "style_internal_white",
		"background_selections": "cell_background_selection"
	},
	{
		"text": "111500",
		"style": "style_internal_white",
		"background_selections": "cell_background_selection"
	},
	{
		"text": "111500",
		"style": "style_internal_white",
		"background_selections": "cell_background_selection"
	},
	{
		"text": "111500",
		"style": "style_internal_white",
		"background_selections": "cell_background_selection"
	},
	{
		"text": "111500",
		"style": "style_internal_white",
		"background_selections": "cell_background_selection"
	}],
	[{
		"text": "",
		"style": "style_side_blue"
	},
	{
		"text": "Brk1",
		"style": "style_internal_white"
	},
	{
		"text": "111530",
		"style": "style_internal_red",
		"background_selections": "cell_background_selection"
	},
	{
		"text": "111530",
		"style": "style_internal_red",
		"background_selections": "cell_background_selection"
	},
	{
		"text": "111530",
		"style": "style_internal_red",
		"background_selections": "cell_background_selection"
	},
	{
		"text": "111530",
		"style": "style_internal_red",
		"background_selections": "cell_background_selection"
	},
	{
		"text": "111530",
		"style": "style_internal_red",
		"background_selections": "cell_background_selection"
	},
	{
		"text": "111530",
		"style": "style_internal_red",
		"background_selections": "cell_background_selection"
	},
	{
		"text": "111530",
		"style": "style_internal_red",
		"background_selections": "cell_background_selection"
	}],
	[{
		"text": "",
		"style": "style_side_blue"
	},
	{
		"text": "Brk2",
		"style": "style_internal_white"
	},
	{
		"text": "113500",
		"style": "style_internal_white",
		"background_selections": "cell_background_selection"
	},
	{
		"text": "113500",
		"style": "style_internal_white",
		"background_selections": "cell_background_selection"
	},
	{
		"text": "113500",
		"style": "style_internal_white",
		"background_selections": "cell_background_selection"
	},
	{
		"text": "113500",
		"style": "style_internal_white",
		"background_selections": "cell_background_selection"
	},
	{
		"text": "113500",
		"style": "style_internal_white",
		"background_selections": "cell_background_selection"
	},
	{
		"text": "113500",
		"style": "style_internal_white",
		"background_selections": "cell_background_selection"
	},
	{
		"text": "113500",
		"style": "style_internal_white",
		"background_selections": "cell_background_selection"
	}],
	[{
		"text": "",
		"style": "style_side_blue"
	},
	{
		"text": "Brk3",
		"style": "style_internal_white"
	},
	{
		"text": "114500",
		"style": "style_internal_white",
		"background_selections": "cell_background_selection"
	},
	{
		"text": "114500",
		"style": "style_internal_white",
		"background_selections": "cell_background_selection"
	},
	{
		"text": "114500",
		"style": "style_internal_white",
		"background_selections": "cell_background_selection"
	},
	{
		"text": "114500",
		"style": "style_internal_white",
		"background_selections": "cell_background_selection"
	},
	{
		"text": "114500",
		"style": "style_internal_white",
		"background_selections": "cell_background_selection"
	},
	{
		"text": "114500",
		"style": "style_internal_white",
		"background_selections": "cell_background_selection"
	},
	{
		"text": "114500",
		"style": "style_internal_white",
		"background_selections": "cell_background_selection"
	}],
	[{
		"text": "",
		"style": "style_side_blue"
	},
	{
		"text": "Brk1",
		"style": "style_internal_white"
	},
	{
		"text": "121500",
		"style": "style_internal_orange",
		"background_selections": "cell_background_selection"
	},
	{
		"text": "121500",
		"style": "style_internal_orange",
		"background_selections": "cell_background_selection"
	},
	{
		"text": "121500",
		"style": "style_internal_orange",
		"background_selections": "cell_background_selection"
	},
	{
		"text": "121500",
		"style": "style_internal_orange",
		"background_selections": "cell_background_selection"
	},
	{
		"text": "121500",
		"style": "style_internal_orange",
		"background_selections": "cell_background_selection"
	},
	{
		"text": "121500",
		"style": "style_internal_orange",
		"background_selections": "cell_background_selection"
	},
	{
		"text": "121500",
		"style": "style_internal_orange",
		"background_selections": "cell_background_selection"
	}],
	[{
		"text": "",
		"style": "style_side_blue"
	},
	{
		"text": "Brk2",
		"style": "style_internal_white"
	},
	{
		"text": "123500",
		"style": "style_internal_white",
		"background_selections": "cell_background_selection"
	},
	{
		"text": "123500",
		"style": "style_internal_white",
		"background_selections": "cell_background_selection"
	},
	{
		"text": "123500",
		"style": "style_internal_white",
		"background_selections": "cell_background_selection"
	},
	{
		"text": "123500",
		"style": "style_internal_white",
		"background_selections": "cell_background_selection"
	},
	{
		"text": "123500",
		"style": "style_internal_white",
		"background_selections": "cell_background_selection"
	},
	{
		"text": "123500",
		"style": "style_internal_white",
		"background_selections": "cell_background_selection"
	},
	{
		"text": "123500",
		"style": "style_internal_white",
		"background_selections": "cell_background_selection"
	}],
	[{
		"text": "",
		"style": "style_side_blue"
	},
	{
		"text": "Brk3",
		"style": "style_internal_white"
	},
	{
		"text": "124500",
		"style": "style_internal_white",
		"background_selections": "cell_background_selection"
	},
	{
		"text": "124500",
		"style": "style_internal_white",
		"background_selections": "cell_background_selection"
	},
	{
		"text": "124500",
		"style": "style_internal_white",
		"background_selections": "cell_background_selection"
	},
	{
		"text": "124500",
		"style": "style_internal_white",
		"background_selections": "cell_background_selection"
	},
	{
		"text": "124500",
		"style": "style_internal_white",
		"background_selections": "cell_background_selection"
	},
	{
		"text": "124500",
		"style": "style_internal_white",
		"background_selections": "cell_background_selection"
	},
	{
		"text": "124500",
		"style": "style_internal_white",
		"background_selections": "cell_background_selection"
	}],
	[{
		"text": "",
		"style": "style_side_blue"
	},
	{
		"text": "Brk3",
		"style": "style_internal_white"
	},
	{
		"text": "124530",
		"style": "style_internal_red",
		"background_selections": "cell_background_selection"
	},
	{
		"text": "124530",
		"style": "style_internal_red",
		"background_selections": "cell_background_selection"
	},
	{
		"text": "124530",
		"style": "style_internal_red",
		"background_selections": "cell_background_selection"
	},
	{
		"text": "124530",
		"style": "style_internal_red",
		"background_selections": "cell_background_selection"
	},
	{
		"text": "124530",
		"style": "style_internal_red",
		"background_selections": "cell_background_selection"
	},
	{
		"text": "124530",
		"style": "style_internal_red",
		"background_selections": "cell_background_selection"
	},
	{
		"text": "124530",
		"style": "style_internal_red",
		"background_selections": "cell_background_selection"
	}],
	[{
		"text": "",
		"style": "style_side_blue"
	},
	{
		"text": "Brk1",
		"style": "style_internal_white"
	},
	{
		"text": "131500",
		"style": "style_internal_white",
		"background_selections": "cell_background_selection"
	},
	{
		"text": "131500",
		"style": "style_internal_white",
		"background_selections": "cell_background_selection"
	},
	{
		"text": "131500",
		"style": "style_internal_white",
		"background_selections": "cell_background_selection"
	},
	{
		"text": "131500",
		"style": "style_internal_white",
		"background_selections": "cell_background_selection"
	},
	{
		"text": "131500",
		"style": "style_internal_white",
		"background_selections": "cell_background_selection"
	},
	{
		"text": "131500",
		"style": "style_internal_white",
		"background_selections": "cell_background_selection"
	},
	{
		"text": "131500",
		"style": "style_internal_white",
		"background_selections": "cell_background_selection"
	}],
	[{
		"text": "",
		"style": "style_side_blue"
	},
	{
		"text": "Brk1",
		"style": "style_internal_white"
	},
	{
		"text": "131530",
		"style": "style_internal_red",
		"background_selections": "cell_background_selection"
	},
	{
		"text": "131530",
		"style": "style_internal_red",
		"background_selections": "cell_background_selection"
	},
	{
		"text": "131530",
		"style": "style_internal_red",
		"background_selections": "cell_background_selection"
	},
	{
		"text": "131530",
		"style": "style_internal_red",
		"background_selections": "cell_background_selection"
	},
	{
		"text": "131530",
		"style": "style_internal_red",
		"background_selections": "cell_background_selection"
	},
	{
		"text": "131530",
		"style": "style_internal_red",
		"background_selections": "cell_background_selection"
	},
	{
		"text": "131530",
		"style": "style_internal_red",
		"background_selections": "cell_background_selection"
	}],
	[{
		"text": "",
		"style": "style_side_blue"
	},
	{
		"text": "Brk2",
		"style": "style_internal_white"
	},
	{
		"text": "133500",
		"style": "style_internal_white",
		"background_selections": "cell_background_selection"
	},
	{
		"text": "133500",
		"style": "style_internal_white",
		"background_selections": "cell_background_selection"
	},
	{
		"text": "133500",
		"style": "style_internal_white",
		"background_selections": "cell_background_selection"
	},
	{
		"text": "133500",
		"style": "style_internal_white",
		"background_selections": "cell_background_selection"
	},
	{
		"text": "133500",
		"style": "style_internal_white",
		"background_selections": "cell_background_selection"
	},
	{
		"text": "133500",
		"style": "style_internal_white",
		"background_selections": "cell_background_selection"
	},
	{
		"text": "133500",
		"style": "style_internal_white",
		"background_selections": "cell_background_selection"
	}],
	[{
		"text": "",
		"style": "style_side_blue"
	},
	{
		"text": "Brk3",
		"style": "style_internal_white"
	},
	{
		"text": "134500",
		"style": "style_internal_white",
		"background_selections": "cell_background_selection"
	},
	{
		"text": "134500",
		"style": "style_internal_white",
		"background_selections": "cell_background_selection"
	},
	{
		"text": "134500",
		"style": "style_internal_white",
		"background_selections": "cell_background_selection"
	},
	{
		"text": "134500",
		"style": "style_internal_white",
		"background_selections": "cell_background_selection"
	},
	{
		"text": "134500",
		"style": "style_internal_white",
		"background_selections": "cell_background_selection"
	},
	{
		"text": "134500",
		"style": "style_internal_white",
		"background_selections": "cell_background_selection"
	},
	{
		"text": "134500",
		"style": "style_internal_white",
		"background_selections": "cell_background_selection"
	}],
	[{
		"text": "",
		"style": "style_side_blue"
	},
	{
		"text": "Brk1",
		"style": "style_internal_white"
	},
	{
		"text": "141500",
		"style": "style_internal_orange",
		"background_selections": "cell_background_selection"
	},
	{
		"text": "141500",
		"style": "style_internal_orange",
		"background_selections": "cell_background_selection"
	},
	{
		"text": "141500",
		"style": "style_internal_orange",
		"background_selections": "cell_background_selection"
	},
	{
		"text": "141500",
		"style": "style_internal_orange",
		"background_selections": "cell_background_selection"
	},
	{
		"text": "141500",
		"style": "style_internal_orange",
		"background_selections": "cell_background_selection"
	},
	{
		"text": "141500",
		"style": "style_internal_orange",
		"background_selections": "cell_background_selection"
	},
	{
		"text": "141500",
		"style": "style_internal_orange",
		"background_selections": "cell_background_selection"
	}]],
	"table_configuration": {
		"style_class": "'table-bordered'",
		"position_location": "col-md-12",
		"url": "https://s3-us-west-2.amazonaws.com/fur-general/general/Workbook.xlsx",
		"enable_table_buttons": "addreesable_table_buttons",
		"background_editor": "Allocation"
	}
}