{
	"evaluate": [],
	"widget_data": {
		"visual": {
			"width": 12,
			"title": "Sell-Through",
			"tooltip": "Sell-Through by date"
		},
		"widget_type": "line_graph",
		"widget_params": {
			"y_min": 30,
			"y_max": 50,
			"postfix": "%"
		},
		"data": [{
			"key": 1420122831,
			"value": 42
		},
		{
			"key": 1427898831,
			"value": 38
		},
		{
			"key": 1435761231,
			"value": 45
		},
		{
			"key": 1443710031,
			"value": 47
		},
		{
			"key": 1451658831,
			"value": 44
		},
		{
			"key": 1459521231,
			"value": 43
		},
		{
			"key": 1467383631,
			"value": 41
		},
		{
			"key": 1475332431,
			"value": 40
		},
		{
			"key": 1483221600,
			"value": 40.5
		},
		{
			"key": 1490994000,
			"value": 41.5
		},
		{
			"key": 1498856400,
			"value": 43
		},
		{
			"key": 1506805200,
			"value": 47
		}]
	},
	"table_configuration": {
		"position_location": "col-md-12"
	}
}